{
  "url": "https://github.com/nixos/nixpkgs.git",
  "rev": "1a1ba3cdd57b0337c32851bcac037df5eceab749",
  "date": "2021-12-19T13:06:36-05:00",
  "path": "/nix/store/y48zn5dg9rmwch5iy8b785nnraxy5vdy-nixpkgs",
  "sha256": "0q49vjb7w4xzfbpx6f8ndcsn9kx4dmivihvaxbiligrxan0cvsj0",
  "fetchSubmodules": false,
  "deepClone": false,
  "leaveDotGit": false
}
